142688,1,North Korean leader's brother 'killed in Malaysia',"South Korean government sources says Kim Jong-nam was targeted at an airport in the Malaysia capital.
",2017-02-14 13:12:20+00:00
142908,1,Death in a dynasty: What led to the demise of Kim Jong-nam?,"The late Kim Jong-nam was never a candidate to take power in North Korea, argues Michael Madden.
",2017-02-14 20:22:01+00:00
143091,1,North Korean leader's brother murdered in Malaysia,"South Korea's spy agency has said that Kim Jong-Nam, the estranged half-brother of North Korean leader Kim Jong-Un, was poisoned by two suspected North Korean female agents.",2017-02-15 04:30:36.905006+00:00
143217,1,Woman held over Kim Jong-nam death,"Female suspect arrested in connection with the death of North Korean leader's brother, Malaysian police say
",2017-02-15 09:52:14+00:00
143640,1,Hunt for 'LOL' woman over death of Kim's brother,"Kim Jong-nam wrote to his half-brother Kim Jong-un in 2012 asking the recently anointed dictator of North Korea to spare his life and that of his family, the head of South Korea's Natio",2017-02-16 02:30:00+00:00
143682,1,Second arrest over Kim Jong-nam murder,"Malaysia has detained a second woman in connection with the murder of Kim Jong-nam, the half brother of North Korean leader Kim Jong-un.",2017-02-16 02:38:15.328051+00:00
143772,1,Malaysia arrests second woman over Kim Jong-nam murder,Woman has an Indonesian passport identifying her as 25-year-old Siti Aishah   ,2017-02-16 07:14:58.338463+00:00
146077,1,Kim Jong-nam killing: Footage shows airport 'attack',"Footage from an airport in Kuala Lumpur, Malaysia, is said to show the moments before Kim Jong-nam died.
",2017-02-16 10:26:50+00:00
143895,1,Kim Jong-nam: ‘Affable’ North Korean who lived quiet but open life,Once known to enjoy a lavish lifestyle sources say he seemed to cut back on spending recently     ,2017-02-16 11:15:49.446760+00:00
144281,1,Kim suspects say they thought poison attack at airport 'a prank',"THE two female and four male suspects in the killing of Kim Jong-nam, the half-brother of the North Korean leader, did not know each other before they were hired for the murder plot, a ",2017-02-17 02:30:00+00:00
144366,1,Kim Jong-nam: Getting away with an airport murder,"A mass of unanswered questions still swirl around the death of North Korea's Kim Jong-nam.
",2017-02-17 04:38:09+00:00
144724,1,Kim Jong-nam murder suspect ‘thought she was on TV show’,North Korea leader’s half-brother was allegedly poisoned in Malaysia earlier this week   ,2017-02-17 18:53:35.281330+00:00
144849,1,Kim Jong-nam: Will killing derail North Korea-China ties?,"Some see Kim Jong-nam's death as a slap in the face for Beijing from the North Korean leader.
",2017-02-18 02:25:59+00:00
144996,1,North Korea says it 'categorically rejects' autopsy results before they're even released,"Kim Jong-Nam, the half-brother of North Korea’s leader, was killed in Malaysia. ",2017-02-18 10:16:02+00:00
145293,1,Obituary: Kim Jong-nam,"Kim Jong-nam, who was assassinated last Monday, aged 45, was the eldest son of the North Korean dictator Kim Jong-il and half-brother of the country's current leader Kim Jong-un.",2017-02-19 02:30:00+00:00
145340,1,Kim Jong-nam murder: Malaysia hunts for four North Korean suspects,"Malaysia police seek four North Korean men who left the country the day Kim Jong-nam was murdered.
",2017-02-19 09:03:12+00:00
145713,1,North Korea Kim Jong-nam killing: Malaysia recalls Pyongyang envoy,"Kim Jong-nam's killing in Kuala Lumpur last week has sparked a row between Malaysia and North Korea.
",2017-02-20 04:12:55+00:00
145849,1,CCTV video emerges of moments surrounding Kim Jong-Nam airport 'poisoning',The estranged half-brother of North Korean leader Kim Jong-Un died in Kuala Lumpur airport last Monday.,2017-02-20 11:09:10+00:00
146196,1,Chemist suspected of masterminding Kim assassination,The North Korean citizen being held over the murder of Kim Jong-nam has a doctorate in chemistry and is suspected of arranging all the logistics for the attack in Kuala Lumpur.,2017-02-21 02:30:00+00:00
146272,1,Kim Jong-nam: Security high at mortuary as family expected,"There is growing speculation the dead North Korean's family could be seeking to reclaim his body.
",2017-02-21 05:12:35+00:00
146343,1,Media frenzy and armed special forces as Kim Jong-Nam's son reportedly visits body,North Korea wants Malaysia to hand over the slain man’s body. ,2017-02-21 09:06:51+00:00
146852,1,Kim Jong-nam killing: Malaysia seeks North Korea embassy official,"The senior official at North Korea's embassy and an airline worker are wanted over Kim Jong-nam's killing.
",2017-02-22 03:42:49+00:00
147420,1,Kim suspects 'hiding in embassy',"Two suspects in the murder of Kim Jong-nam were yesterday believed to be ""hiding"" inside North Korea's embassy in Malaysia, according to sources.",2017-02-23 02:30:00+00:00
147510,1,Kim Jong-nam killing: North Korea condemns Malaysia,"An angry report in North Korean state media says Malaysia is responsible for the death of ""a citizen"".
",2017-02-23 04:07:32+00:00
147605,1,North Korea blames Malaysia for death of Kim Jong-nam,Malaysian police suspect eight North Koreans of killing Kim Jong-un’s half-brother   ,2017-02-23 08:30:01.345117+00:00
147642,1,North Korea's secretive media breaks its silence on Kim Jong-Nam murder,The state-run news agency has broadcast a government demand for the return of the body.,2017-02-23 09:52:52+00:00
147988,1,Nerve agent 'found on Kim Jong-nam',"Laboratory report confirms nerve agent found on Kim Jong-nam's face, Malaysian police say
",2017-02-24 00:55:11+00:00
148117,1,Deadly nerve agent used to kill Kim Jong-nam,"The estranged half-brother of North Korean leader, Kim Jong Un, was killed with a highly toxic chemical weapon known as VX nerve agent, Malaysian police have said.",2017-02-24 02:56:15.529992+00:00
148131,1,How deadly VX could have killed Kim Jong-nam,"The toxin could have easily been smuggled into Malaysia without detection, expert Bruce Bennett says.
",2017-02-24 03:56:17+00:00
148170,1,Kim Jong-nam killed by highly toxic nerve agent– Malaysia,Chemical  listed as weapon of mass destruction used to kill half brother of N Korea leader    ,2017-02-24 06:30:40.131701+00:00
148190,1,Kim Jong-Nam was killed by 'most potent' chemical weapon VX nerve agent,The son of Kim Jong-Il died in Malaysia after a seizure.,2017-02-24 07:10:44+00:00
148437,1,Suspect in Kim Jong-nam assassination posed in flowery bikini at motor show,"A NEW picture has emerged of the Vietnamese woman suspected of helping to kill North Korean leader Kim Jong-un's half-brother in Malaysia, posing on a motorbike in a bikini.",2017-02-24 16:00:14.158227+00:00
148811,1,Kim Jong-nam killing: Suspect 'was paid $90 for baby oil prank',"Indonesian woman Siti Aisyah interviewed over death of North Korean leader's half-brother.
",2017-02-25 09:35:16+00:00
148862,1,Kim Jong-nam suspect ‘paid $90’ for baby oil ‘prank’ attack,Police say woman rubbed  nerve agent on face of North Korean leaders’ half brother at  Kuala Lumpur airport   ,2017-02-25 12:52:59.747684+00:00
149070,1,Kim Jong-nam killing: Malaysia airport terminal declared safe,"North Korean leader's half brother was killed by a nerve agent in the airport two weeks ago.
",2017-02-26 02:21:40+00:00
149265,1,Kim Jong-nam: VX dose was 'high and lethal',"North Korean leader's half-brother died of multiple organ failure after a dose of VX nerve agent.
",2017-02-26 12:35:58+00:00
149395,1,Truth about Kim Jong-nam murder stranger than fiction,Author and ex-CIA  analyst  puzzled at timing of low-key North Korean assassination   ,2017-02-26 18:02:46.824040+00:00
151334,1,Why was North Korea's Kim Jong-nam killed?,"His half brother's not the first member his family to be killed, since Kim Jong-un became North Korea's leader in 2011.
",2017-02-26 21:24:56+00:00
149782,1,Kim Jong-nam: What is South Korea's take on the killing?,"Speculation is rife and defectors are unnerved by the death of the North Korean in Malaysia.
",2017-02-27 10:50:19+00:00
149945,1,Kim Jong-nam death: Four wanted N Koreans 'are spies',"South Korea's intelligence agency says four North Koreans wanted by Malaysia over killing are spies.
",2017-02-27 16:23:34+00:00
150269,1,Kim Jong-nam death: Two women to face murder charges,"Two women will be charged on Wednesday over the killing of Kim Jong-nam, Malaysia's prosecutor says.
",2017-02-28 07:04:21+00:00
150293,1,Two women to be charged with Kim Jong-nam’s murder,Police arrested the women in days following death of half-brother of North Korean leader   ,2017-02-28 08:01:39.133088+00:00
150780,1,North Korea demands return of Kim Jong-nam's body,North Korea sent a high-level delegation to Malaysia yesterday to demand the body of leader Kim Jong-un's half brother who was killed in a nerve-agent attack that many suspect the reclu,2017-03-01 02:36:32.536644+00:00
150831,1,Kim Jong-nam death: Two women charged with murder,"They could face the death penalty if convicted of murdering the North Korean leader's half-brother.
",2017-03-01 02:41:20+00:00
150928,1,Two women charged with Kim Jong-nam's murder,Suspects wore bullet bullet-proof vests reflecting Malaysian fears others may want them killed   ,2017-03-01 08:35:07.333140+00:00
151489,1,Kim Jong-nam death: Malaysia ends visa-free entry for N Koreans,"The change for ""security reasons"" comes as Malaysia hunts N Koreans over Kim Jong-nam's killing.
",2017-03-02 03:36:46+00:00
151581,1,Kim Jong-nam: Malaysia to cancel free entry for North Koreans,Diplomatic ties worsen after murder of brother of North Korean leader Kim Jong-un   ,2017-03-02 08:20:29.324601+00:00
152165,1,Kim Jong-nam death: Malaysia releases North Korean detainee,"Ri Jong Chol, the only North Korean arrested over Kim Jong-nam's death, will be deported.
",2017-03-03 04:07:26+00:00
152232,1,Kim Jong-nam: Malaysia releases North Korean held over killing,Diplomatic battle between the two countries has been unleashed since Kim’s death   ,2017-03-03 08:00:54.732003+00:00
152273,1,Malaysia to deport suspect in Kim murder,"A North Korean suspect detained by Malaysia in connection with the murder of Kim Jong-nam will be deported to Pyongyang and not allowed back, the Malaysian deputy prime minister said.",2017-03-03 09:30:33.738229+00:00
152705,1,Kim Jong-nam death: North Korean says arrest was 'conspiracy',"A North Korean suspected of involvement in Kim Jong-nam's death says he is the victim of a conspiracy.
",2017-03-03 23:50:37+00:00
152861,1,"Kim Jong-nam murder suspect says Malaysia is conspiring against him, claims police threatened to kill his family","A North Korean chemist deported from Malaysia has accused police of threatening to kill his family unless he confessed to the assassination of the half-brother of North Korea's leader, ",2017-03-04 11:46:44.278342+00:00
152909,1,Kim Jong-nam killing: Malaysia expels North Korean ambassador,"The move follows the death of the North Korean leader's half-brother at Kuala Lumpur airport.
",2017-03-04 14:08:56+00:00
153249,1,Kim Jong-nam killing: Malaysia expels North Korean ambassador,The estranged half- brother of North Korean leader Kim Jong-un was murdered on February 13th    ,2017-03-05 10:46:05.296480+00:00
153405,1,Malaysia expels North Korean ambassador over  assassination,Envoy  asked to leave after saying foreign forces colluded in Kim Jong-nam killing   ,2017-03-05 18:00:10.356509+00:00
153882,1,N Korea orders expulsion of Malaysian ambassador,"North Korea has said it will expel Malaysia's ambassador after its own envoy was ordered out of the southeast Asian nation, in an increasingly bitter row over the assassination of Kim Jong-nam at Kuala Lumpur International Airport.",2017-03-06 12:41:09.820107+00:00
154284,1,Malaysians 'banned from leaving North Korea',"North Korea says it is banning Malaysians from leaving the country, in a row over the death of Kim Jong-nam
",2017-03-07 03:34:26+00:00
154332,1,"Kim Jong-nam: Malaysia, North Korea in tit-for-tat exit bans",Breakdown in relations between countries following murder of Kim Jong-un’s brother   ,2017-03-07 07:02:05.386808+00:00
155402,1,Kim Jong-nam death: man claiming to be son appears in video,Man  says he is lying low  after death of  North Korean leader Kim Jong-un’s half-brother   ,2017-03-08 19:05:16.620618+00:00
155771,1,Kim Jong-nam death: Malaysian UN workers leave North Korea,"Their departure came despite a N Korean tit-for-tat ban with Malaysia after Kim Jong-nam's murder.
",2017-03-09 09:36:48+00:00
156494,1,Malaysia police confirm Kim Jong-nam identity,"Malaysia's police chief has confirmed that the man assassinated at Kuala Lumpur's international airport last month was Kim Jong-nam, half-brother of North Korea's leader Kim Jong-un.",2017-03-10 11:17:51.498281+00:00
157944,1,Malaysia gives North Korea time to claim Kim Jong-nam’s body,Since Kim’s death relations between the two countries have steadily deterioated    ,2017-03-13 09:30:26.641849+00:00
158552,1,Kim Jong-nam death: Malaysia 'to deport 50 North Koreans',"The move comes despite reciprocal travel bans imposed amid the row over the murder of Kim Jong-nam.
",2017-03-14 07:59:51+00:00
160003,1,Kim Jong-nam death: Interpol 'red notice' for N Koreans,"Malaysia wants the four in connection with the murder of the half-brother of North Korea's leader.
",2017-03-16 09:24:45+00:00
168877,1,Kim Jong-nam's body to be released,"Malaysia approves the release of Kim Jong-nam's body for return to North Korea, the Malaysian PM says.
",2017-03-30 12:22:24+00:00
168890,1,Kim Jong-Nam's body to be sent to North Korea · TheJournal.ie,Malaysia has ended the feud between the two countries which stopped citizens in both countries from leaving.,2017-03-30 12:39:49+00:00
168934,1,Malaysia releases body of Kim Jong-nam to North Korea,Move to transfer  remains of airport assassination victim puts an end to  diplomatic spat   ,2017-03-30 14:01:28.195399+00:00
169242,1,Malaysia and North Korea agree deal on Kim's body,Malaysia said yesterday it had agreed to release the body of Kim Jong-nam to North Korea in exchange for the return of nine Malaysians held in the North's capital.,2017-03-31 01:31:48.234944+00:00
169331,1,Kim Jong-nam: Malaysians held in North Korea return home,"They were prevented from leaving Pyongyang after a diplomatic row erupted over Kim Jong-nam's death.
",2017-03-31 01:51:46+00:00
169473,1,Kim Jong-nam: Body 'arrives in Pyongyang' in exchange deal,"Nine Malaysians also return home under a deal to end the diplomatic row that followed his death.
",2017-03-31 09:19:08+00:00
169654,1,Kim Jong-nam’s remains arrive in  North Korea,Three suspects in  alleged assassination also return home after swap deal with Malaysia   ,2017-03-31 14:46:43.939652+00:00
