322,0,Cameron launches savage attack on Boris over EU poll,"British Prime Minister David Cameron launched a savage attack on London's mayor Boris Johnson during his Commons speech, in which he set out his EU deal.",2016-02-23 02:30:00+00:00,,,
13552,0,"Islamic State threatens attacks on London, Berlin and Rome in new video","The Islamic State militant group released a video on Tuesday suggesting it may carry out further attacks in the West, naming London, Berlin and Rome as possible targets.",2016-04-05 12:05:00+00:00,,,
13565,0,"Islamic State hints at attacks in London, Berlin and Rome",Jihadist group threatens further attacks in the West in newly-released video    ,2016-04-05 12:59:30.555341+00:00,,,
20054,0,Face of marathon runner who died three miles from finish line after heart attack,The runner who collapsed and died three miles from the London Marathon finish line has been identified as an army captain who had been raising money for wounded soldiers.,2016-04-25 10:51:00+00:00,,,
37890,0,Alice Gross murder: Schoolgirl 'unlawfully killed' in sex attack,"A schoolgirl who was discovered dead in a west London river was ""unlawfully killed"" by a foreign convicted murderer, an inquest finds.
",2016-07-04 14:09:32+00:00,,,
39922,0,Security in London to be reviewed in aftermath of Nice attack,"London Mayor Sadiq Khan has announced he will be ""reviewing our own safety measures"" following the attack in Nice.",2016-07-15 10:11:00+00:00,,,
40256,0,Man who fled to the US after beating father-of-two to death 19 years ago sentenced to life,"The victim was attacked with a machete, a meat cleaver and a baseball bat in London.",2016-07-15 20:09:00+00:00,,,
40861,0,Waitress 'used London terror experience' to clear hotel terrace,A waitress has been praised for using her experience of terror in London to evacuate a hotel terrace during the Nice attacks.,2016-07-16 23:26:00+00:00,,,
48854,0,"London police chief warns terror attack a case of 'when, not if'","Britain cannot be fully protected against terrorism and an attack similar to those seen recently in mainland Europe is a question of ""when, not if,"" London's police chief said on Sunday.",2016-07-31 12:07:00+00:00,,,
49341,0,Leytonstone Tube attacker jailed,"Man who attacked Tube passengers with knife in east London jailed for life with eight-and-a-half year minimum term
",2016-08-01 12:12:21+00:00,,,
49419,0,Life term for IS-inspired Tube attacker Muhiddin Mire,"A man who attacked Tube passengers with a knife in London and tried to behead one of them has been jailed for life, as Andy Moore reports.
",2016-06-08 16:51:31+00:00,,,
49478,0,Survivor's pity for Leytonstone station attacker,"A man who survived having his throat cut in an attack on the London Underground inspired by so-called Islamic State, has given his first broadcast interview.
",2016-08-01 14:42:13+00:00,,,
49888,0,London Tube attacker given life sentence for Isis inspired attack,Muhiddin Mire to begin sentence in high security hospital  alongside the Yorkshire Ripper    ,2016-08-02 10:14:41.330793+00:00,,,
50327,0,"Kilburn cafe murder: Barangu Gulbudak, 21, charged with killing Efes cafe owner","A 21-year-old man is charged with the murder of the owner of a north London cafe, who was attacked in front of his customers.
",2016-08-03 01:31:32+00:00,,,
50441,0,"More armed police on London streets, say Met chief and mayor","More armed police will be seen on London's streets from now on following terrorist attacks in Europe, Met Commissioner Sir Bernard Hogan-Howe and Mayor Sadiq Khan say.
",2016-08-03 04:01:55+00:00,,,
50482,0,London police deploy extra armed officers to protect against attacks,"London's police force will deploy an additional 600 armed officers across the capital to protect against the threat of attacks, authorities announced on Wednesday.",2016-08-03 06:22:00+00:00,,,
50580,0,London deploys extra armed police officers to protect against attacks,The additional  officers will be visible to the public and will work across London   ,2016-08-03 09:45:54.540359+00:00,,,
50615,0,Extra armed police officers deployed in London,"London's police force will deploy an additional 600 armed officers across the capital to protect against the threat of attacks, Mayor Sadiq Khan has said.",2016-08-03 10:15:58+00:00,,,
50734,0,Additional armed police deployed in London after recent terrorist attacks,"The security level for the city remains the same, but the threat in London is ‘severe’.",2016-08-03 14:09:42+00:00,,,
50809,0,Do armed police make you feel safer?,"More armed police are to be seen on patrol in London to reassure the public and deter attackers following terrorist attacks in Europe.
",2016-08-03 16:44:07.543245+00:00,,,
51018,0,"One dead, several hurt in knife attack","Woman dead and up to six injured in knife incident in Russell Square, central London
",2016-08-04 00:55:44+00:00,,,
51119,0,"Knife attack in London kills one, injures six","One woman was killed and up to six other people were injured in a stabbing attack in central London, and a male suspect was arrested, the city's Metropolitan Police said on Thursday.",2016-08-04 01:37:00+00:00,,,
51129,0,Woman killed and five hurt in knife attack,"A woman has been killed and five others injured in a knife attack in Russell Square, London. Police say terrorism could have been a motive.
",2016-08-04 02:44:16.319311+00:00,,,
51150,0,One woman killed and five people injured in London knife attack,More armed officers are being deployed to the city’s streets today. ,2016-08-04 05:29:38+00:00,,,
51157,0,London knife attack: one dead and five injured,"Early indications ‘suggest that mental health is a significant factor in this case,’ say police    ",2016-08-04 05:30:31.407473+00:00,,,
51163,0,Woman stabbed to death and five injured in London knife attack as police probe terror link,A 19-year-old man is under guard in hospital after a woman was killed and five people were injured in a London knife attack.,2016-08-04 05:11:00+00:00,,,
51164,0,"One dead, five injured in London knife attack",A woman in her 60s has died and five other people have been injured in a knife attack last night in central London.,2016-08-04 05:24:32+00:00,,,
51178,0,Mayor of London urges public to remain 'calm' in wake of late night knife attack,"Mayor of London Sadiq Khan has called for the public to remain ""calm and vigilant"" as police investigate whether a knife attack that left one woman dead and five people injure",2016-08-04 05:57:00+00:00,,,
51181,0,Russell Square attack: 'We saw a body on the pavement',"Witness Paul O'Geibheannaigh saw a body on the pavement following a fatal knife attack in Russell Square, London.
",2016-08-04 03:49:32+00:00,,,
51183,0,Five things you need to know today,London knife attack, teacher penalties, bishop’s support for Maynooth, Lidl jobs,2016-08-04 06:29:22.056868+00:00
51205,0,Russell Square stabbing: Everything we know about the attack on Thursday morning,A woman was killed and five other people injured in a stabbing attack in central London on Wednesday night.,2016-08-04 06:54:00+00:00,,,
51262,0,Russell Square attack: Arrested man 'was screaming',"A witness at the scene of a fatal knife attack in central London says a man was ""screaming his guts out"" as he was detained by police.
",2016-08-04 06:16:54+00:00,,,
51365,0,Russell Square knife attack: Amateur footage of arrest,"Amateur footage shows a man on the ground being detained by police after a fatal knife attack in Russell Square, London.
",2016-08-04 08:37:00+00:00,,,
51391,0,Russell Square stabbing victims 'selected at random',"The victims of a knife attack in London's Russell Square were ""selected at random"", the Metropolitan Police has said.
",2016-08-04 11:52:31+00:00,,,
51415,0,Russell Square stabbings shock London,"A stabbing attack in central London just hours after police announced they were stepping up security in face of the heighted terror threat shocks residents.
",2016-08-04 12:40:43+00:00,,,
51627,0,U.S. woman killed in London was wife of Florida State professor,"An American woman killed in a knife attack in London on Wednesday night was the wife of an eminent psychology professor at Florida State University (FSU), the university said in a statement on Thursday.",2016-08-04 19:35:00+00:00,,,
51637,0,Here's what happened today: Thursday · TheJournal.ie,"Ian Bailey, Michael O’Reilly’s positive drop test and a London knife attack had people talking today.",2016-08-04 19:57:48+00:00,,,
51643,0,Russell Square stabbings: Darlene Horton named as victim,"The US citizen killed in a knife attack in Russell Square, central London, is named as an eminent university professor's wife.
",2016-08-04 20:09:13+00:00,,,
52011,0,"Woman killed in London knife attack was ""one of the loveliest, sweetest people""",64-year-old Florida native Darlene Horton had been due to return to the US just hours after the stabbing attack.,2016-08-05 10:27:55+00:00,,,
52026,0,"Florida woman killed in London was retired educator, tennis player: media","A Florida woman killed in a knife attack in London this week was a mother, a retired special education teacher and an avid tennis player, local and national media said on Friday.",2016-08-05 10:59:00+00:00,,,
52080,0,'I've never seen any sign of anything that suggest he has problems' - neighbours of man accused of going on stabbing rampage in London,"Neighbours of a teenager being held over the Russell Square knife attack described him as a ""quiet"" and ""pleasant"" young man who enjoyed playing football with his yo",2016-08-05 12:15:00+00:00,,,
52304,0,Man charged over fatal knife attack in London,A 19-year-old man has been charged with carrying out a knife attack which left an American tourist dead and five other people injured in London's Russell Square.,2016-08-05 20:48:16+00:00,,,
52342,0,London knife attacker charged with murder of U.S. woman,"A 19-year-old man was charged on Friday with the murder of a 64-year-old U.S. woman in a knife attack that wounded five others in Central London on Wednesday, London Metropolitan Police said.",2016-08-05 22:34:00+00:00,,,
52519,0,Russell Square stabbings: Man due in court over London murder,"A 19-year-old man is due in court charged with the murder of a US tourist in a knife attack in London's Russell Square.
",2016-08-06 06:12:56+00:00,,,
52577,0,Man remanded in custody over fatal London stabbing,A 19-year-old man has been remanded in custody at Westminster Magistrates' Court after being charged with carrying out a knife attack in London that left an American tourist dead and five people injured.,2016-08-06 10:11:49+00:00,,,
52591,0,Teenager accused of London stabbing rampage is remanded in custody,A teenager charged with carrying out a knife attack in London which left an American tourist dead and five people injured has been remanded in custody after appearing in court today.,2016-08-06 11:12:00+00:00,,,
52647,0,Teenager charged with London knife attack is  remanded in custody,Zakaria Bulhan accused of murdering retired teacher Darlene Horton at Russell Square   ,2016-08-06 14:48:30.102475+00:00,,,
55654,0,Duke of Westminster Gerald Cavendish died of a heart attack,"The billionaire landowner and philanthropist the Duke of Westminster died of a heart attack, a coroner confirms.
",2016-08-11 13:10:51+00:00,,,
58921,0,Oliver Dearlove 'single punch' murder: Man arrested,"A man is arrested on suspicion of murdering a banker killed in a reported single-punch attack in south east London.
",2016-09-01 13:34:46+00:00,,,
67535,0,Filmed confrontation between London police officer and motorist investigated,Dramatic footage appears to show policeman attacking a car after driver refuses to get out   ,2016-09-18 08:29:25.295253+00:00,,,
78758,0,Woman wearing hijab attacked in London street,"A woman had her hijab pulled down in the middle of a busy north London street in a racially motivated assault, police say.
",2016-10-09 13:37:27+00:00,,,
86042,0,London on terror alert for 'further planned attacks' as man arrested after viable explosive device found on Tube train,Police are continuing to question a teenager arrested by counter-terrorism officers after a device was discovered on a Tube train.,2016-10-22 07:12:00+00:00,,,
89796,0,"UK border weakness could lead to London attack, report warns",Report makes 127 recommendations to limit chances of violent jihadis striking city   ,2016-10-28 19:29:39.701876+00:00,,,
92301,0,Ethem Orhon guilty of Hampton supermarket car park stabbings,"A man is found guilty of attacking four women in a stabbing spree in a west London supermarket car park.
",2016-11-04 13:19:16+00:00,,,
100337,0,Police officer stabbed in Bow pub attack,"A police officer is stabbed in an attack near a pub while on duty in east London.
",2016-11-22 23:46:28+00:00,,,
102689,0,Bow police officer attack: Two charged with attempted murder,"A man and a woman are charged with attempting to murder a police officer in east London.
",2016-11-27 07:45:46+00:00,,,
108840,0,Russell Square stabbings: Zakaria Bulhan 'fit to stand trial',"A man charged with murdering a US tourist and wounding five other people in a knife attack in central London deemed fit to plead and stand trial, a court hears.
",2016-12-08 12:07:55+00:00,,,
111063,0,Man stabbed in London train station by attacker who 'shouted death to Muslims',The attack is not being treated as terrorism.,2016-12-12 20:06:38+00:00,,,
111517,0,Man charged after train attack at Forest Hill train station,"A 38-year-old is charged with attempted murder after a man was attacked at an Overground train station in south-east London.
",2016-12-13 16:13:37+00:00,,,
114563,0,Police release CCTV of 'frenzied' stabbing attack in Barking,"The Metropolitan police have released CCTV footage of a man being stabbed in what they described as a frenzied and unprovoked attack in east London.
",2016-12-19 11:29:59.722132+00:00,,,
132870,0,Police hunt after string of sex attacks on London buses,"A man is being hunted by police after five young women, including a 13-year-old girl, made separate sexual assault complaints.
",2017-01-29 10:41:33+00:00,,,
134994,0,City ‘war games’ the ultimate cyber attack on east coast US,London Briefing: Insurers test industry’s ability to withstand cascading catastrophes   ,2017-02-01 06:30:34.162787+00:00,,,
138039,0,Ticket inspector attack man jailed after train assault filmed,"The fare dodger ranted and lashed out at London Midland staff after refusing to buy a £2.20 ticket.
",2017-02-04 17:13:36+00:00,,,
138237,0,CCTV of Russell Square knife attacker released,"CCTV showing police chasing Zakaria Bulhan moments after stabbing six people in London is released.
",2016-08-04 11:52:31+00:00,,,
139285,0,Rolf Harris cleared of sexual assault charges,Australian entertainer found not guilty in London court of three alleged attacks   ,2017-02-08 14:44:53.720181+00:00,,,
147801,0,Man (29) arrested at London airport over Deutsche Telekom hack that hit almost one million people,A 29-year old British man has been arrested in connection with a cyber-attack that affected nearly a million Deutsche Telekom customers back in November.,2017-02-23 15:46:54.325779+00:00,,,
148332,0,Haunting images of WW2 London's 'archive of destruction',"Stark and haunting images of the aftermath of German attacks on 1940s London.
",2017-02-03 09:55:16+00:00,,,
150733,0,Early warning signs of heart attacks 'being missed',"The British Heart Foundation called the research by Imperial College London ""concerning"".
",2017-03-01 01:01:26+00:00,,,
161953,0,Suspect named in manhunt after deadly 'hammer attack' on one-year-old toddlers,Police are urgently searching for a man in connection with the murder of a one-year-old boy and an attack on a girl believed to be his twin sister in north London.,2017-03-19 19:01:11.563505+00:00,,,
162263,0,"Teenager shot in the head in Barking, east London","A 20-year-old man has been arrested on suspicion of murder after the attack in Barking.
",2017-03-20 08:06:36+00:00,,,
162272,0,First picture of boy (1) who died after 'hammer attack' as twin sister (1) fights for her life,The first pictures have emerged of the tragic one-year-old boy who was killed in an alleged hammer attack at his home in North London.,2017-03-20 08:45:38.134887+00:00,,,
162478,0,Sharp rise attacks involving corrosive fluids in London,"Since 2010 there have been more than 1,800 reports of attacks involving corrosive fluids in London.
",2017-03-20 15:18:07+00:00,,,
163077,0,Man jailed after sickening attack on train passenger after waking attacker at wrong stop,A 24-year-old man was jailed after being sentenced for a violent and unprovoked assault on a London train in 2015.,2017-03-21 12:45:37.947700+00:00,,,
163858,1,Holyrood referendum debate halted after Westminster shooting,"The Scottish Parliament suspends a debate on whether to call for an independence referendum following an attack outside the UK Parliament.
",2017-03-22 16:10:40+00:00,,,
163861,1,Donald Trump briefed on knife and car attack near London Parliament,"Donald Trump has described the terrorist incident outside London's Parliament, in which one police officer was stabbed and one man was shot, as ""big news"".",2017-03-22 16:16:01.449952+00:00,,,
163862,1,Eyewitness video shows immediate aftermath of incident on Westminster Bridge,A video posted on social media claims to have captured the aftermath of the attack close to the Palace of Westminster.,2017-03-22 16:16:13.651886+00:00,,,
163863,1,Westminster shooting: Latest updates,Updates from Westminster where a policeman has been stabbed and his apparent attacker shot by officers in a major security incident at parliament buildings in London.,2017-03-22 16:16:57.252383+00:00,,,
163872,1,London attack: Witness 'saw bodies' after Westminster incident,"Steve Voake was on Westminster Bridge when a car mowed down pedestrians.
",2017-03-22 16:07:21+00:00,,,
163884,1,London attack: 'Man in black... stabbing or striking',"Journalist Quentin Letts has described seeing a man in black who appeared to strike a policeman.
",2017-03-22 16:41:06+00:00,,,
163893,1,'I missed it by 30 seconds' - Irish man walked into parliament moments ahead of attacker,"A senior Fianna Fáil member narrowly missed encountering a man suspected of carrying out a London 'terrorist' attack, Independent.ie can reveal.",2017-03-22 17:16:20.345726+00:00,,,
163901,1,Denis Staunton: ‘Stunned’ Westminster in lockdown after attack,Politicians in shock as police officer stabbed and pedestrians mowed down in London   ,2017-03-22 17:30:35.182750+00:00,,,
163906,1,Westminster attack: Rage at terror selfies on social media,"Exclusive music news, big interviews, entertainment, social media trends and video from the news people at BBC Radio 1 and 1Xtra.
",2017-03-22 17:44:42.230028+00:00,,,
163921,1,London attack: What we know so far,"Here is what we know about the incidents in Westminster, which are being treated by police as terrorism.
",2017-03-22 17:45:52+00:00,,,
163923,1,London attack: French children injured on bridge,"Three schoolchildren from France are among those injured in the Westminster Bridge attack.
",2017-03-22 17:43:48+00:00,,,
163929,1,Facebook has activated its Safety Check feature in the wake of the Westminster attack,People in central London can mark themselves as ‘safe’.,2017-03-22 18:02:49.570269+00:00,,,
163930,1,Police have issued a warning about sharing pictures of the Westminster attack on social media,The Met asked people to show “common sense and restraint”.,2017-03-22 18:02:59.974338+00:00,,,
163932,1,London attack: Four dead in Westminster terror incident,"A police officer and a man believed to be the attacker are among those who died near UK Parliament.
",2017-03-22 18:09:55+00:00,,,
163945,1,"No Irish citizens caught up in London attack, says Flanagan",Minister for Foreign Affairs ‘unreservedly’  condemns terror   attack  at Westminster     ,2017-03-22 18:45:17.484254+00:00,,,
163955,1,Security forces move to identify dead suspect in Westminster attack,Violence was at one of Britain’s most important and heavily guarded institutions   ,2017-03-22 19:00:40.574431+00:00,,,
163956,1,London attack - Here is everything we know so far,"Four people have been killed, including an armed police officer, in a major terrorist incident just yards from the Houses of Parliament this afternoon.",2017-03-22 19:01:00.181409+00:00,,,
163957,1,Westminster attack: What we know so far,"A counter-terrorism investigation is already under way, police said.",2017-03-22 19:01:10.336239+00:00,,,
163978,1,"Four dead, at least 20 injured: Here's what's known about today's terror attack in London",The dead include a police officer tasked with guarding the Houses of Parliament.,2017-03-22 19:55:16+00:00,,,
163985,1,People are using #PrayForLondon on Twitter to show solidarity with the UK after the terror attack in Westminster,The incident occurred on Westminster Bridge and in the grounds of the Palace of Westminster.,2017-03-22 20:01:40.604998+00:00,,,
163987,1,May chairs Cobra meeting following Westminster attack,British Prime Minister Theresa May is to chair a special meeting of the Cobra committee following the deadly attack in Westminster today.,2017-03-22 20:02:31.292831+00:00,,,
163992,1,Tourists stuck up London Eye looked down on  aftermath of attack,"‘We felt safe up there but the longer we were up there, we were anxious to get off’   ",2017-03-22 20:15:08.834924+00:00,,,
164003,1,Calm and stoic mood on Westminster streets,"Westminster's streets - normally teeming with tourists and protesters - are eerily quite after terror attack.
",2017-03-22 19:15:46+00:00,,,
164004,1,London attack: Eyewitness describes terror scene aftermath,"Martin Pearce broadcasted live on Facebook during the immediate aftermath of the attack.
",2017-03-22 15:44:43+00:00,,,
164005,1,Nothing will stop British democracy says Chris Bryant MP,"MPs begin to leave Westminster Abbey after being evacuated during a terrorist attack near the Houses of Parliament.
",2017-03-22 20:44:56.679685+00:00,,,
164006,1,London attack: Corbyn says thoughts are with victims,"Jeremy Corbyn pays tribute to the police and says his thoughts are with the victims of the attack in and outside Parliament.
",2017-03-22 20:45:06.567568+00:00,,,
164010,1,Westminster attack: ‘Get out! Get under cover now!’,Boxing team coach and cabinet minister among those who rush to help wounded   ,2017-03-22 20:45:52.506765+00:00,,,
164022,1,Here's What Happened Today: Wednesday · TheJournal.ie,A deadly terrorist attack in central London seized headlines today.,2017-03-22 21:04:28+00:00,,,
164026,1,Irish witness tells of his lucky escape in London  terror attack," Lawyer saw  people strewn about ‘every 10 yards’, apparently lifeless   ",2017-03-22 21:15:51.639519+00:00,,,
164027,1,"Any attempt to defeat the values Parliament stands for are 'doomed to failure', Theresa May","British Prime Minister Theresa May has responded to Wednesday's ""sick and depraved"" terrorist attack on the the streets of London.",2017-03-22 21:16:06.375576+00:00,,,
164034,1,Theresa May condemns 'depraved' Westminster attack,"The prime minister has condemned the terror attack on Westminster as ""sick and depraved"".
",2017-03-22 21:15:52+00:00,,,
164041,1,Full transcript of Theresa May's statement,Here is the full transcript of Prime Minister Theresa May's statement following Wednesday's terror attack in Westminster:,2017-03-22 21:46:16.964304+00:00,,,
164053,1,London attack: World leaders show solidarity,"France, Germany and the US send messages of solidarity after the deadly attack near parliament.
",2017-03-22 21:56:28+00:00,,,
164061,1,Mayor says London 'won't be cowed by terrorists',"Sadiq Khan praised emergency services' swift response, after a terror attack in Westminster.
",2017-03-22 21:52:37+00:00,,,
164064,1,President sends message of sympathy over Westminster attack,Michael D Higgins has sent a sympathy message over the Westminster terror attack.,2017-03-22 22:31:00.958365+00:00,,,
164065,1,'I thought a bomb was about to go off': Bus driver on Westminster Bridge during attack describes what he saw,"A London bus driver has described scenes of ""panic"" as a suspected terror attack unfolded outside the Houses of Parliament.",2017-03-22 22:31:16.154941+00:00,,,
164066,1,London attack: May condemns 'sick and depraved terrorist attack',"The prime minister says people will go on with their lives as normal and Parliament will continue to meet.
",2017-03-22 22:09:55+00:00,,,
164071,1,London attack: Welsh MP tells of 'shots' as five people die,"A Welsh MP tells of hearing shots outside Parliament after a terrorist attack in which five people died.
",2017-03-22 23:01:13+00:00,,,
164074,1,Westminster attack: What we know at the end of a tragic day in London,The death toll and the number of injured has increased over the evening.,2017-03-22 23:26:48.594555+00:00,,,
164102,1,Five killed and  40 injured in Westminster terror attack,Assailant shot dead after fatal stabbing of police officer beside parliament   ,2017-03-23 01:01:13.700969+00:00,,,
164112,1,London attack: Students hit by car on Westminster visit,"Four students from a Lancashire university named as among those injured by car in Westminster attack.
",2017-03-23 00:45:25+00:00,,,
164127,1,Donald Trump Jr criticises London mayor after terror attack,"The US president's son hits out at Sadiq Khan for comments made last year about terror preparedness.
",2017-03-23 02:05:46+00:00,,,
164150,1,Sterling recovers after London terror attack,"Sterling recovered and government bond futures fell back on Wednesday, after an assailant was shot outside the UK parliament by police.",2017-03-23 02:35:16.547946+00:00,,,
164178,1,Terror on the Thames: Five left dead after London terror attack,"A knife-wielding man went on a deadly rampage at the heart of Britain's seat of power yesterday, smashing a car into pedestrians on London's Westminster Bridge before stabbing a police ",2017-03-23 02:46:20.121732+00:00,,,
164184,1,Flanagan: 'Terror and violence will never triumph',"Foreign Affairs Minister Charlie Flanagan paid tribute to the victims of the London attack, saying: ""Terror and violence will never triumph over democracy.""",2017-03-23 02:47:22.897188+00:00,,,
164185,1,"Knifeman got through gate that was security 'weak spot', say MPs","The terrorist attack on London's parliament could have been prevented if police on duty at a well-known security ""weak spot"" had simply kept it bolted, MPs said yesterday.",2017-03-23 02:47:30.337560+00:00,,,
164188,1,Panic and then a stampede as hundreds ran for their lives when attacker struck,"It was the terrorist attack that police and security services always feared, but hoped would never come. A man, dressed all in black, drove a car at 80kmh the full length of Westminster",2017-03-23 02:48:04.918131+00:00,,,
164235,1,World condemns London terror attack,World leaders have condemned the bloody terror attack outside the Houses of Parliament that ended in the deaths of four people and the assailant and left 40 injured.,2017-03-23 04:16:00.355193+00:00,,,
164243,1,'Terror at the heart of power',"The terrorist attack in London which left a policeman dead is the only story to feature on Thursday's front pages.
",2017-03-23 04:43:55+00:00,,,
164281,1,"London attack: Five people, including police officer and 'sick and depraved' terrorist confirmed dead",Counter-terror detectives are continuing to search for clues about about how an armed attacker brought death and destruction to the streets of London on Wednesday.,2017-03-23 06:45:08.838180+00:00,,,
164289,1,Brother of 'suspect' says he is still in prison after he's mistakenly named as London attacker,"The man initially named as the attacker who mowed down pedestrians and stabbed a police officer outside Parliament in London is in fact still in prison for an unrelated matter, his brot",2017-03-23 07:01:07.806376+00:00,,,
164295,0,Five things you need to know today,"Westminster attack, Bill Clinton at McGuinness funeral, construction boom could overheat   ",2017-03-23 07:19:27.330591+00:00,,,
164296,1,Armed police carry out overnight raid on Birmingham property believed to linked to the Westminster attack,"Armed police have carried out an overnight raid on a Birmingham property, which was reportedly linked to the attack in Westminster on Wednesday.",2017-03-23 07:20:01.801671+00:00,,,
164302,1,Police raids in Birmingham linked to Westminster terror incident,Five people  killed and at least 40 injured by lone attacker near the Houses of Parliament   ,2017-03-23 07:30:52.456337+00:00,,,
164303,1,What do we know about the Westminster attacker so far?,Five people have now died and about 40 have been injured.,2017-03-23 07:31:22.695305+00:00,,,
164321,1,Seven held after Westminster attack,"Seven arrests made in raids following Westminster attack that left five dead, police say
",2017-03-23 07:55:30+00:00,,,
164322,1,Witnesses describe how Westminster attack unfolded,"Witnesses describe how attack near the Houses of Parliament unfolded.
",2017-03-22 20:12:07+00:00,,,
164334,1,London attack: Police confirm seven arrests made,"Police have searched six addresses and made seven arrests, says Metropolitan Police Acting Deputy Commissioner Mark Rowley.
",2017-03-23 07:51:21+00:00,,,
164335,1,Channel 4 News apologises after naming wrong man as suspect in Westminster attack ,A senior home affairs correspondent had quoted a senior source as naming the suspect.,2017-03-23 08:17:29+00:00,,,
164337,1,This is how world leaders responded to the Westminster terror attack,The Eiffel Tower turned off its lights in solidarity with the UK.,2017-03-23 08:30:38.324853+00:00,,,
164339,1,Police praised for bravery in Westminster attack,Incoming Metropolitan Police commissioner Cressida Dick has praised the bravery of officers involved in the Westminster attack yesterday.,2017-03-23 08:31:37.198150+00:00,,,
164350,1,Farewells in Derry and attacks in London dominate news,Inside Politics: Key political figures to attend funeral of Martin McGuinness    ,2017-03-23 09:00:26.691774+00:00,,,
164359,1,Scottish independence referendum debate to resume next Tuesday,"Holyrood independence referendum debate to resume next week after being postponed due to the London terror attack.
",2017-03-23 09:14:27+00:00,,,
164363,1,6 things Londoners can actually do to help in the aftermath of the Westminster attack,Practical things that will actually make a difference.,2017-03-23 09:30:56.214714+00:00,,,
164369,1,Olympic boxers among team who witnessed London attack,"Members of the British Lionhearts boxing team witnessed part of Wednesday's terror attack in London, GB Boxing has confirmed.",2017-03-23 09:46:22.261818+00:00,,,
164378,1,"Scottish independence referendum debate to resume on Tuesday: BBC
| Reuters","Scotland's parliament will resume its independence referendum debate on Tuesday after it suspended proceedings following an attack on Britain's national parliament at Westminster, the BBC reported.
",2017-03-23 09:59:16.812563+00:00,,,
164388,1,London attack: Police raid Birmingham flat,"Armed police have raided a Birmingham flat in an operation linked to Wednesday's terror attack in Westminster.
",2017-03-23 07:51:21+00:00,,,
164397,1,London attacks: How Westminster attack unfolded,"Aerial images show path of Westminster attack
",2017-03-23 08:22:02+00:00,,,
164408,1,London attack: Brendan Cox calls for 'togetherness',"Brendan Cox, the widower of murdered MP Jo Cox, called for togetherness after the Westminster attack.
",2017-03-23 06:42:19+00:00,,,
164413,1,All the misinformation around the London attack you should be wary of,There have been several inaccurancies as details of the incident unfold.,2017-03-23 11:01:05.531035+00:00,,,
164417,1,Londoners share images of unity and strength after Westminster attack,"Find out what's buzzing in the social media world today.
",2017-03-23 10:52:56+00:00,,,
164419,1,London attack: Theresa May says democracy will prevail,"In a statement to MPs following the attack on Westminster, Theresa May says democracy will prevail.
",2017-03-23 11:15:16.585690+00:00,,,
164420,1,One Irish person injured in Westminster terror attack  · TheJournal.ie,British Prime Minister Theresa May confirmed the nationalities of the injured in parliament today. ,2017-03-23 11:13:30+00:00,,,
164428,1,Jeremy Corbyn: 'Fear must not divide or cower us',"Labour leader Jeremy Corbyn has urged people not to rush to judgment about the attack on Westminster as police continue their investigations.
",2017-03-23 11:29:49.299918+00:00,,,
164431,1,London Tube stations are displaying defiant messages in response to the Westminster attack,Inspirational noticeboards were exactly what we needed on our commute to work today.,2017-03-23 11:30:51.196216+00:00,,,
164432,1,How London got back to business as usual a day after the Westminster attack,“We musn’t cower.”,2017-03-23 11:31:02.921494+00:00,,,
164435,1,London attack: Off-duty doctor one of first to help,"There has been praise for the bravery of the emergency services and the public in the wake of the attack.
",2017-03-23 11:29:03+00:00,,,
164437,1,Birmingham raid witness sees moment police raided flat,"A woman describes the ""scary"" moment police raided a Birmingham flat in an operation linked to the London attack.
",2017-03-23 11:44:48.296188+00:00,,,
164456,1,Eiffel Tower turns off lights in tribute,"Lights on the famous Paris landmark go off in tribute to the victims of the London attack.
",2017-03-23 11:59:48.830681+00:00,,,
164459,1,Woman (29) who plunged into the Thames during the Westminster attack named as Romanian architect,Romanian media has named the woman who plunged into the Thames to escape the Westminster terror attacks as 29-year-old architect Andreea Cristea.,2017-03-23 12:01:20.239949+00:00,,,
164487,1,London attack: How events unfolded,"BBC correspondent Andy Moore reports on the aftermath of the Westminster attack.
",2017-03-23 12:44:32.797859+00:00,,,
164491,1,Injuries to Irish person in Westminster terror attack not life threatening,"The injuries suffered by an Irish person in the Westminster terror attack are not life threatening, the Dail has been told.",2017-03-23 12:45:53.626158+00:00,,,
164507,1,London attack: 'Business as usual' for defiant MPs and commuters,"MPs and ordinary Londoners vow to carry on as normal in the wake of a deadly terror attack on Parliament.
",2017-03-23 12:48:13+00:00,,,
164508,1,#WeStandTogether: London unites after Westminster attack,"The people of London show their solidarity after the Westminster attack.
",2017-03-23 12:21:32+00:00,,,
164510,1,Stocks and bonds rally on interest-free ECB cash,Markets appear relatively unruffled by Wednesday’s terror attack in London   ,2017-03-23 13:15:19.999556+00:00,,,
164534,1,London attack: French foreign minister Jean-Marc Ayrault meets victims,"The lives of three French teenagers injured in Wednesday's terror attack are not in danger - minister.
",2017-03-23 13:07:38+00:00,,,
164547,1,World watches as London 'stabbed in heart',"The attack outside the UK parliament has made headlines around the world
",2017-03-23 10:40:31+00:00,,,
164552,1,Efforts  to secure Leinster House after Westminster attack,Tánaiste says ‘safety and security’ of locations around the State a ‘prime concern’   ,2017-03-23 14:31:05.474652+00:00,,,
164555,1,Westminster attack: Charlton Athletic pay tribute to Addicks fan Pc Keith Palmer,A lovely touch from the London club.,2017-03-23 14:32:01.836927+00:00,,,
164565,1,London attack: This is an abomination,"The Archbishop of Westminster tells the BBC that the Westminster attack could never be justified.
",2017-03-23 11:39:39+00:00,,,
164571,1,Here's what MPs are saying about the Westminster terror attack,They paid tribute to those who lost their lives.,2017-03-23 15:01:23.671963+00:00,,,
164575,1,Here's everything we know so far about the Westminster attack victims,"Tributes have been paid to Keith Palmer, Aysha Frade and Kurt Cochran.",2017-03-23 15:15:41.040983+00:00,,,
164586,1,London attack: Police name Westminster attacker,"The man believed to be responsible for the attack is named as 52-year-old Khalid Masood.
",2017-03-23 15:40:02+00:00,,,
164587,1,London attacks: How is security organised at other seats of power?,"An attacker tried and failed to access Westminster - so what is security like in Paris, Berlin, Brussels ands Washington DC?
",2017-03-23 15:34:08+00:00,,,
164588,1,"London attack: UKIP leader Paul Nuttall says UK needs to ""cut out the cancer"" from society","The Muslim community needs to help cut out the ""cancer within our society of radical Islam"", UKIP leader Paul Nuttall says in the wake of the terror attack.
",2017-03-23 15:45:11.297689+00:00,,,
164610,1,London attack: BBC walks Westminster Bridge route,"Matthew Price reports from Westminster Bridge on the deadly sequence of events.
",2017-03-23 11:39:39+00:00,,,
164611,1,London attack: Student 'hit head-on' by car on Westminster Bridge,"Travis Frain suffered fractures to his hand and leg when he was hit by a car on Westminster Bridge.
",2017-03-23 16:02:27+00:00,,,
164631,1,How Wednesday's attack on Westminster unfolded,"An attack in Westminster leaves four dead and 40 injured.
",2017-03-23 16:45:12.660356+00:00,,,
164632,1,World leaders declare solidarity with UK after attack,"World leaders declare solidarity with the UK following Wednesday's attack in Westminster.
",2017-03-23 16:36:24+00:00,,,
164638,1,London attack: Nuttall says cut out radical Islam cancer,"UKIP's leader sparks anger after he urges Muslims to ""cut out the cancer of radical Islam"".
",2017-03-23 16:46:48+00:00,,,
164643,1,Everything we know a day on from the Westminster attack,The attacker has been named by police as Khalid Masood.,2017-03-23 17:01:11.290536+00:00,,,
164647,1,London attack: Amber Rudd says don't point finger of blame at intelligence services,"Home Secretary Amber Rudd warns against pointing any ""finger of blame"" at intelligence services after the London attack.
",2017-03-23 17:14:50.664258+00:00,,,
164657,1,People sign messages of hope on street art after London attack,"Exclusive music news, big interviews, entertainment, social media trends and video from the news people at BBC Radio 1 and 1Xtra.
",2017-03-23 17:44:15.237757+00:00,,,
164668,1,Tributes pour in for PC Keith Palmer killed in Westminster attack,"His family described the 48-year-old as a ""wonderful dad and husband, a loving son, brother and uncle"".
",2017-03-23 17:44:21+00:00,,,
164676,1,"People from the Muslim community have raised more than £12,000 for the Westminster attack victims and their families","The group smashed its initial target of £10,000 the same day the page was set up.",2017-03-23 18:01:32.551972+00:00,,,
164678,1,London attack: Home secretary says don't blame intelligence agencies,"Home Secretary says the intelligence agencies can't monitor everyone known to them round the clock.
",2017-03-23 17:56:24+00:00,,,
164686,1,Westminster attack: the dead and wounded from 10 nations,Irish woman among 40 injured in attack in London   ,2017-03-23 18:30:12.217309+00:00,,,
164691,1,Emotions high in parliament as MPs remember terror attack dead,"The scene looked familiar, but the tone at Westminster  was absent of usual bombast   ",2017-03-23 18:45:13.249891+00:00,,,
164693,1,Security for EU summit in Rome stepped up after London attack,Police  worried about   Isis threat and violence from extreme left and right factions   ,2017-03-23 18:45:32.526722+00:00,,,
164707,1,London attack: How man tried to save PC Keith Palmer,"Tony Davis was the first person to reach PC Keith Palmer, who lost his life in the London attack.
",2017-03-23 16:06:53+00:00,,,
164714,1,London attack: Locals and tourists defiant,"People living in and visiting London share the same optimistic message in the aftermath of the attack.
",2017-03-23 19:16:24+00:00,,,
164717,1,Khalid Masood: Here's what we know about the man named by police as the Westminster attacker,Masood was known to police before the attack.,2017-03-23 19:45:41.548819+00:00,,,
164755,1,Quentin Letts: Eyewitness to London attacks,"Quentin Letts gives his eye witness account of the terror attack in Westminster.
",2017-03-23 17:11:51+00:00,,,
164764,1,Controlled explosion carried out less than a mile away from Westminster attack,"Police have reportedly performed a controlled explosion near Westminster, less than a mile away from the scene of a terrorist attack which claimed the lives of three people.",2017-03-23 21:30:28.322379+00:00,,,
164765,1,We asked people at the Trafalgar Square vigil what their message was after the Westminster attack,People gathered for a minute’s silence to remember those who died.,2017-03-23 21:30:37.204296+00:00,,,
164767,1,75-year-old man becomes fifth person to die after Westminster attack,He was pronounced dead tonight after his life support was withdrawn.,2017-03-23 21:35:00+00:00,,,
164777,1,London attack: Trafalgar Square vigil for people to 'express solidarity',"The people of London and visitors to the city come together to remember the people who lost their lives.
",2017-03-23 20:16:42+00:00,,,
164797,1,London attack: Thousands attend vigil,"Thousands attend a vigil in central London to remember the victims of Wednesday's attack.
",2017-03-23 10:56:26+00:00,,,
164805,1,London attack: Theresa May evacuated from Westminster,"Footage obtained by the Sun shows Theresa May being hurried to safety during Wednesday's attack.
",2017-03-23 16:06:53+00:00,,,
164815,1,'The homegrown terrorist' and UK's 'defiant' response,"Friday's newspapers focus on the the identity of the assailant behind the Westminster terror attack.
",2017-03-24 00:10:07+00:00,,,
164832,1,Westminster attacker not under investigation,Khalid Masoon (52) lived in the west midlands and had a number of criminal convictions    ,2017-03-24 01:01:50.754028+00:00,,,
164923,1,Woman who fell into river is Romanian architect (29),"The woman who fell into the Thames during the Westminster attacks has been named as Andreea Cristea, a 29-year-old architect from Romania.",2017-03-24 02:46:51.460834+00:00,,,
164924,1,Now Isil claims that it inspired attacker to carry out atrocity,Isil's carefully worded claim of responsibility suggested the Westminster attacker was inspired - rather than orchestrated - by the jihadist group.,2017-03-24 02:47:04.154002+00:00,,,
164926,1,Irish woman not in serious condition - but man (75) becomes fourth victim of attack,An Irish woman was among those injured in the terrorist attack in London - while a 75-year-old man has become the fifth person to die following the atrocity.,2017-03-24 02:47:31.860651+00:00,,,
164927,1,"'I missed being a victim of the terror attack by a matter of seconds,' says Irish solicitor",An Irish solicitor has revealed he missed being on Westminster Bridge for the lone wolf terror attack by only a matter of seconds.,2017-03-24 02:47:44.812499+00:00,,,
164933,1,Only way to truly stop DIY jihadis is to interrupt their journey to radicalisation,Once again we have witnessed a terrorist attack on the streets of London - and once again the obsession becomes how to guard against such atrocities. So what is the right approach to ta,2017-03-24 02:48:53.172392+00:00,,,
164987,1,London attack: 'Final' photo of killed PC Keith Palmer emerges,"A new photo of PC Keith Palmer emerges, as the birth name of his attacker is revealed as Adrian Elms.
",2017-03-24 05:46:58+00:00,,,
165007,1,Police 'carry out controlled explosion in Westminster',"Police have reportedly performed a controlled explosion near Westminster, less than a mile away from the scene of a terrorist attack which claimed the lives of five people.",2017-03-24 06:46:26.804470+00:00,,,
165016,1,Westminster attacker had violent past,"Detectives are exploring the past of the middle-aged man of who launched a terror attack on Westminster on Wednesday, killing four people.",2017-03-24 07:01:44.054724+00:00,,,
165040,1,Dominic Grieve: Arming police officers is not the 'solution',"Could the Westminster attack have been avoided?
",2017-03-22 18:31:35+00:00,,,
165043,1,London attacker: A 52-year-old violent criminal with a number of aliases,The attacker had never been convicted of terrorism officers was not the subject of investigations.  ,2017-03-24 07:46:58+00:00,,,
165047,1,75-year-old man killed in London attack named,"75-year-old man killed in Westminster attack named by police as they say 50 were injured and two still critical
",2017-03-24 08:09:28+00:00,,,
165059,1,Two more 'significant arrests' after Westminster attacks as details of killer's past emerge,Two more ,2017-03-24 08:45:23.154205+00:00,,,
165069,1,Ex GCHQ chief: It's not a question 'whether' attacks take place but 'when',"Former head of GCHQ says attacks like those on Westminster are inevitable
",2017-03-23 06:42:19+00:00,,,
165071,1,"Sadiq Khan refuses to respond Donald Trump Jr's criticism of him, saying he has 'better things to do' in wake of London attack","London Mayor Sadiq Khan has refused to reply to a critical Twitter post by Donald Trump Jr, saying he has been “doing more important things” in the wake of a deadly terrorist attack in ",2017-03-24 09:15:33.568895+00:00,,,
165075,1,London attack: Latest victim named as two more 'significant arrests' are made,The total number of victims who have died has no reached four.,2017-03-24 09:16:05+00:00,,,
165078,1,Teenager on Westminster Bridge during London terror attack describes moment he was hit,"A student injured in the Westminster terror attack was thrown over the bonnet of the killer’s car as the carnage began, his mother has said. Travis Frain (19) was walking across Westmin",2017-03-24 09:30:46.175865+00:00,,,
165101,1,Here are all of Friday morning's updates on the Westminster attack,The fourth victim has been named.,2017-03-24 10:02:30.201301+00:00,,,
165110,1,In pictures: London mourns... and carries on,"Two days after the attack in Westminster, London tries to return to normal
",2017-03-24 09:27:25+00:00,,,
165124,1,London attack: Parliament security under review,"Review under way amid debate over whether police officers guarding Parliament should be routinely armed.
",2017-03-24 10:48:32+00:00,,,
165125,1,Westminster attack: Fourth victim named as  Leslie Rhodes,Attacker named as Khalid Masood (52) and had a number of criminal convictions   ,2017-03-24 11:00:17.894420+00:00,,,
